\relax 
\providecommand\hyper@newdestlabel[2]{}
\providecommand\HyperFirstAtBeginDocument{\AtBeginDocument}
\HyperFirstAtBeginDocument{\ifx\hyper@anchor\@undefined
\global\let\oldcontentsline\contentsline
\gdef\contentsline#1#2#3#4{\oldcontentsline{#1}{#2}{#3}}
\global\let\oldnewlabel\newlabel
\gdef\newlabel#1#2{\newlabelxx{#1}#2}
\gdef\newlabelxx#1#2#3#4#5#6{\oldnewlabel{#1}{{#2}{#3}}}
\AtEndDocument{\ifx\hyper@anchor\@undefined
\let\contentsline\oldcontentsline
\let\newlabel\oldnewlabel
\fi}
\fi}
\global\let\hyper@last\relax 
\gdef\HyperFirstAtBeginDocument#1{#1}
\providecommand\HyField@AuxAddToFields[1]{}
\providecommand\HyField@AuxAddToCoFields[2]{}
\@writefile{toc}{\beamer@endinputifotherversion {3.33pt}}
\@writefile{nav}{\beamer@endinputifotherversion {3.33pt}}
\select@language{english}
\@writefile{toc}{\select@language{english}}
\@writefile{lof}{\select@language{english}}
\@writefile{lot}{\select@language{english}}
\@writefile{nav}{\headcommand {\slideentry {0}{0}{1}{1/1}{}{0}}}
\@writefile{nav}{\headcommand {\beamer@framepages {1}{1}}}
\@writefile{nav}{\headcommand {\slideentry {0}{0}{2}{2/2}{}{0}}}
\@writefile{nav}{\headcommand {\beamer@framepages {2}{2}}}
\@writefile{nav}{\headcommand {\slideentry {0}{0}{3}{3/3}{}{0}}}
\@writefile{nav}{\headcommand {\beamer@framepages {3}{3}}}
\@writefile{toc}{\beamer@sectionintoc {1}{Normal Slide}{4}{0}{1}}
\@writefile{nav}{\headcommand {\sectionentry {1}{Normal Slide}{4}{Normal Slide}{0}}}
\@writefile{nav}{\headcommand {\beamer@sectionpages {1}{3}}}
\@writefile{nav}{\headcommand {\beamer@subsectionpages {1}{3}}}
\@writefile{nav}{\headcommand {\slideentry {1}{0}{1}{4/4}{}{0}}}
\@writefile{nav}{\headcommand {\beamer@framepages {4}{4}}}
\@writefile{toc}{\beamer@sectionintoc {2}{Floats}{5}{0}{2}}
\@writefile{nav}{\headcommand {\sectionentry {2}{Floats}{5}{Floats}{0}}}
\@writefile{nav}{\headcommand {\beamer@sectionpages {4}{4}}}
\@writefile{nav}{\headcommand {\beamer@subsectionpages {4}{4}}}
\@writefile{toc}{\beamer@subsectionintoc {2}{1}{Figures}{5}{0}{2}}
\@writefile{nav}{\headcommand {\beamer@subsectionentry {0}{2}{1}{5}{Figures}}\headcommand {\beamer@subsectionpages {5}{4}}}
\@writefile{nav}{\headcommand {\slideentry {2}{1}{1}{5/5}{Figures}{0}}}
\@writefile{nav}{\headcommand {\beamer@framepages {5}{5}}}
\@writefile{nav}{\headcommand {\slideentry {2}{1}{2}{6/6}{Figures}{0}}}
\@writefile{nav}{\headcommand {\beamer@framepages {6}{6}}}
\@writefile{toc}{\beamer@subsectionintoc {2}{2}{Tables}{7}{0}{2}}
\@writefile{nav}{\headcommand {\beamer@subsectionentry {0}{2}{2}{7}{Tables}}\headcommand {\beamer@subsectionpages {5}{6}}}
\@writefile{nav}{\headcommand {\slideentry {2}{2}{1}{7/7}{Tables}{0}}}
\@writefile{nav}{\headcommand {\beamer@framepages {7}{7}}}
\@writefile{toc}{\beamer@sectionintoc {3}{Emphasize}{8}{0}{3}}
\@writefile{nav}{\headcommand {\sectionentry {3}{Emphasize}{8}{Emphasize}{0}}}
\@writefile{nav}{\headcommand {\beamer@sectionpages {5}{7}}}
\@writefile{nav}{\headcommand {\beamer@subsectionpages {7}{7}}}
\@writefile{toc}{\beamer@subsectionintoc {3}{1}{Block}{8}{0}{3}}
\@writefile{nav}{\headcommand {\beamer@subsectionentry {0}{3}{1}{8}{Block}}\headcommand {\beamer@subsectionpages {8}{7}}}
\@writefile{nav}{\headcommand {\slideentry {3}{1}{1}{8/8}{Block}{0}}}
\@writefile{nav}{\headcommand {\beamer@framepages {8}{8}}}
\@writefile{toc}{\beamer@subsectionintoc {3}{2}{Text Emphasize}{9}{0}{3}}
\@writefile{nav}{\headcommand {\beamer@subsectionentry {0}{3}{2}{9}{Text Emphasize}}\headcommand {\beamer@subsectionpages {8}{8}}}
\@writefile{nav}{\headcommand {\slideentry {3}{2}{1}{9/9}{Text Emphasize}{0}}}
\@writefile{nav}{\headcommand {\beamer@framepages {9}{9}}}
\@writefile{nav}{\headcommand {\beamer@partpages {1}{9}}}
\@writefile{nav}{\headcommand {\beamer@subsectionpages {9}{9}}}
\@writefile{nav}{\headcommand {\beamer@sectionpages {8}{9}}}
\@writefile{nav}{\headcommand {\beamer@documentpages {9}}}
\@writefile{nav}{\headcommand {\def \inserttotalframenumber {9}}}
