\beamer@endinputifotherversion {3.33pt}
\select@language {english}
\beamer@sectionintoc {1}{Normal Slide}{4}{0}{1}
\beamer@sectionintoc {2}{Floats}{5}{0}{2}
\beamer@subsectionintoc {2}{1}{Figures}{5}{0}{2}
\beamer@subsectionintoc {2}{2}{Tables}{7}{0}{2}
\beamer@sectionintoc {3}{Emphasize}{8}{0}{3}
\beamer@subsectionintoc {3}{1}{Block}{8}{0}{3}
\beamer@subsectionintoc {3}{2}{Text Emphasize}{9}{0}{3}
