\BOOKMARK [2][]{Outline0.1}{Normal Slide}{}% 1
\BOOKMARK [2][]{Outline0.2}{Floats}{}% 2
\BOOKMARK [3][]{Outline0.2.1.5}{Figures}{Outline0.2}% 3
\BOOKMARK [3][]{Outline0.2.2.7}{Tables}{Outline0.2}% 4
\BOOKMARK [2][]{Outline0.3}{Emphasize}{}% 5
\BOOKMARK [3][]{Outline0.3.1.8}{Block}{Outline0.3}% 6
\BOOKMARK [3][]{Outline0.3.2.9}{Text Emphasize}{Outline0.3}% 7
